\relax 
\providecommand\zref@newlabel[2]{}
\providecommand\hyper@newdestlabel[2]{}
\providecommand\HyperFirstAtBeginDocument{\AtBeginDocument}
\HyperFirstAtBeginDocument{\ifx\hyper@anchor\@undefined
\global\let\oldcontentsline\contentsline
\gdef\contentsline#1#2#3#4{\oldcontentsline{#1}{#2}{#3}}
\global\let\oldnewlabel\newlabel
\gdef\newlabel#1#2{\newlabelxx{#1}#2}
\gdef\newlabelxx#1#2#3#4#5#6{\oldnewlabel{#1}{{#2}{#3}}}
\AtEndDocument{\ifx\hyper@anchor\@undefined
\let\contentsline\oldcontentsline
\let\newlabel\oldnewlabel
\fi}
\fi}
\global\let\hyper@last\relax 
\gdef\HyperFirstAtBeginDocument#1{#1}
\providecommand\HyField@AuxAddToFields[1]{}
\providecommand\HyField@AuxAddToCoFields[2]{}
\providecommand \oddpage@label [2]{}
\@writefile{toc}{\contentsline {section}{\numberline {1}T\IeC {\'o}m t\IeC {\'\abreve }t}{2}{section.1}}
\@writefile{toc}{\contentsline {section}{\numberline {2}Gi\IeC {\'\ohorn }i thi\IeC {\d \ecircumflex }u}{2}{section.2}}
\@writefile{toc}{\contentsline {section}{\numberline {3}C\IeC {\'a}c gi\IeC {\h a}i thu\IeC {\d \acircumflex }t s\IeC {\h \uhorn } d\IeC {\d u}ng trong \IeC {\'\UHORN }ng d\IeC {\d u}ng}{2}{section.3}}
\@writefile{toc}{\contentsline {subsection}{\numberline {3.1}Hash}{2}{subsection.3.1}}
\@writefile{lof}{\contentsline {figure}{\numberline {1}{\ignorespaces M\IeC {\~a} h\IeC {\'o}a c\IeC {\h a} th\IeC {\^o}ng \IeC {\dj }i\IeC {\d \ecircumflex }p v\IeC {\`a} gi\IeC {\'a} tr\IeC {\d i} hash\relax }}{2}{figure.caption.4}}
\providecommand*\caption@xref[2]{\@setref\relax\@undefined{#1}}
\newlabel{fig:ahash}{{1}{2}{Mã hóa cả thông điệp và giá trị hash\relax }{figure.caption.4}{}}
\@writefile{lof}{\contentsline {figure}{\numberline {2}{\ignorespaces Ch\IeC {\h i} m\IeC {\~a} h\IeC {\'o}a hash code\relax }}{2}{figure.caption.5}}
\newlabel{fig:bhash}{{2}{2}{Chỉ mã hóa hash code\relax }{figure.caption.5}{}}
\@writefile{lof}{\contentsline {figure}{\numberline {3}{\ignorespaces S\IeC {\h \uhorn } d\IeC {\d u}ng th\IeC {\^e}m secret key\relax }}{3}{figure.caption.6}}
\newlabel{fig:chash}{{3}{3}{Sử dụng thêm secret key\relax }{figure.caption.6}{}}
\@writefile{lof}{\contentsline {figure}{\numberline {4}{\ignorespaces S\IeC {\h \uhorn } d\IeC {\d u}ng secret key v\IeC {\`a} m\IeC {\~a} h\IeC {\'o}a\relax }}{3}{figure.caption.7}}
\newlabel{fig:dhash}{{4}{3}{Sử dụng secret key và mã hóa\relax }{figure.caption.7}{}}
\@writefile{lof}{\contentsline {figure}{\numberline {5}{\ignorespaces m\IeC {\~a} h\IeC {\'o}a hash code b\IeC {\`\abreve }ng private key c\IeC {\h u}a ng\IeC {\uhorn }\IeC {\`\ohorn }i g\IeC {\h \uhorn }i\relax }}{3}{figure.caption.8}}
\newlabel{fig:adigitalsignature}{{5}{3}{mã hóa hash code bằng private key của người gửi\relax }{figure.caption.8}{}}
\@writefile{lof}{\contentsline {figure}{\numberline {6}{\ignorespaces S\IeC {\h \uhorn } d\IeC {\d u}ng th\IeC {\^e}m sysmetric cipher\relax }}{3}{figure.caption.9}}
\newlabel{fig:bdigitalsignature}{{6}{3}{Sử dụng thêm sysmetric cipher\relax }{figure.caption.9}{}}
\@writefile{toc}{\contentsline {subsection}{\numberline {3.2}sysmetric algorithm}{3}{subsection.3.2}}
\@writefile{lof}{\contentsline {figure}{\numberline {7}{\ignorespaces M\IeC {\^o} h\IeC {\`\i }nh \IeC {\dj }\IeC {\ohorn }n gi\IeC {\h a}n c\IeC {\h u}a m\IeC {\~a} h\IeC {\'o}a \IeC {\dj }\IeC {\'\ocircumflex }i x\IeC {\'\uhorn }ng\relax }}{4}{figure.caption.10}}
\newlabel{fig:sysmetric}{{7}{4}{Mô hình đơn giản của mã hóa đối xứng\relax }{figure.caption.10}{}}
\@writefile{toc}{\contentsline {subsection}{\numberline {3.3}asymetric algorithm}{4}{subsection.3.3}}
\@writefile{toc}{\contentsline {subsection}{\numberline {3.4}Public Key Cryptography}{4}{subsection.3.4}}
\@writefile{lof}{\contentsline {figure}{\numberline {8}{\ignorespaces M\IeC {\~a} h\IeC {\'o}a v\IeC {\'\ohorn }i public key\relax }}{4}{figure.caption.11}}
\newlabel{reffigure_1}{{8}{4}{Mã hóa với public key\relax }{figure.caption.11}{}}
\@writefile{toc}{\contentsline {subsubsection}{\numberline {3.4.1}M\IeC {\^o} t\IeC {\h a} gi\IeC {\h a}i thu\IeC {\d \acircumflex }t RSA}{5}{subsubsection.3.4.1}}
\@writefile{toc}{\contentsline {subsubsection}{\numberline {3.4.2}Hi\IeC {\d \ecircumflex }n th\IeC {\d \uhorn }c trong \IeC {\'\UHORN }ng d\IeC {\d u}ng}{5}{subsubsection.3.4.2}}
\@writefile{toc}{\contentsline {subsubsection}{\numberline {3.4.3}T\IeC {\'\i }nh an to\IeC {\`a}n c\IeC {\h u}a gi\IeC {\h a}i thu\IeC {\d \acircumflex }t}{5}{subsubsection.3.4.3}}
\@writefile{toc}{\contentsline {subsection}{\numberline {3.5}Gi\IeC {\h a}i thu\IeC {\d \acircumflex }t DES}{6}{subsection.3.5}}
\@writefile{toc}{\contentsline {subsubsection}{\numberline {3.5.1}M\IeC {\^o} t\IeC {\h a} gi\IeC {\h a}i thu\IeC {\d \acircumflex }t}{6}{subsubsection.3.5.1}}
\@writefile{lof}{\contentsline {figure}{\numberline {9}{\ignorespaces M\IeC {\~a} h\IeC {\'o}a DES\relax }}{6}{figure.caption.12}}
\newlabel{reffigure_1}{{9}{6}{Mã hóa DES\relax }{figure.caption.12}{}}
\@writefile{toc}{\contentsline {subsubsection}{\numberline {3.5.2}G\IeC {\h i}ai thu\IeC {\d \acircumflex }t triple DES3}{6}{subsubsection.3.5.2}}
\@writefile{lof}{\contentsline {figure}{\numberline {10}{\ignorespaces M\IeC {\~a} h\IeC {\'o}a plaintext v\IeC {\'\ohorn }i DES v\IeC {\`a} t\IeC {\d a}o key\relax }}{7}{figure.caption.13}}
\newlabel{reffigure_1}{{10}{7}{Mã hóa plaintext với DES và tạo key\relax }{figure.caption.13}{}}
\@writefile{lof}{\contentsline {figure}{\numberline {11}{\ignorespaces M\IeC {\^o} h\IeC {\`\i }nh gi\IeC {\h a}i thu\IeC {\d \acircumflex }t triple DES\relax }}{7}{figure.caption.14}}
\@writefile{toc}{\contentsline {subsubsection}{\numberline {3.5.3}Hi\IeC {\d \ecircumflex }n th\IeC {\d \uhorn }c DES v\IeC {\`a} triple DES trong \IeC {\'\uhorn }ng d\IeC {\d u}ng}{7}{subsubsection.3.5.3}}
\@writefile{lof}{\contentsline {figure}{\numberline {12}{\ignorespaces M\IeC {\^o} h\IeC {\`\i }nh chi ti\IeC {\'\ecircumflex }t gi\IeC {\h a}i thu\IeC {\d \acircumflex }t triple DES\relax }}{8}{figure.caption.15}}
\@writefile{toc}{\contentsline {subsubsection}{\numberline {3.5.4}\IeC {\DJ }\IeC {\d \ocircumflex } an to\IeC {\`a}n c\IeC {\h u}a gi\IeC {\h a}i thu\IeC {\d \acircumflex }t}{8}{subsubsection.3.5.4}}
\@writefile{toc}{\contentsline {subsection}{\numberline {3.6}Gi\IeC {\h a}i thu\IeC {\d \acircumflex }t AES}{8}{subsection.3.6}}
\@writefile{toc}{\contentsline {subsubsection}{\numberline {3.6.1}M\IeC {\^o} t\IeC {\h a} thu\IeC {\d \acircumflex }t to\IeC {\'a}n}{8}{subsubsection.3.6.1}}
\@writefile{lof}{\contentsline {figure}{\numberline {13}{\ignorespaces Gi\IeC {\h a}i m\IeC {\~a} v\IeC {\`a} m\IeC {\~a} h\IeC {\'o}a b\IeC {\`\abreve }ng AES\relax }}{9}{figure.caption.16}}
\@writefile{toc}{\contentsline {subsubsection}{\numberline {3.6.2}Hi\IeC {\d \ecircumflex }n th\IeC {\uhorn }c gi\IeC {\h a}i thu\IeC {\d \acircumflex }t}{10}{subsubsection.3.6.2}}
\@writefile{toc}{\contentsline {subsubsection}{\numberline {3.6.3}T\IeC {\'\i }nh an to\IeC {\`a}n c\IeC {\h u}a AES}{10}{subsubsection.3.6.3}}
\@writefile{toc}{\contentsline {section}{\numberline {4}C\IeC {\'a}c ch\IeC {\'\uhorn }c n\IeC {\u a}ng c\IeC {\h u}a ch\IeC {\uhorn }\IeC {\ohorn }ng tr\IeC {\`\i }nh}{10}{section.4}}
\@writefile{toc}{\contentsline {section}{\numberline {5}Ph\IeC {\^a}n t\IeC {\'\i }ch v\IeC {\`a} k\IeC {\'\ecircumflex }t lu\IeC {\d \acircumflex }n}{11}{section.5}}
\@writefile{toc}{\contentsline {section}{\numberline {6}H\IeC {\uhorn }\IeC {\'\ohorn }ng ph\IeC {\'a}t tri\IeC {\h \ecircumflex }n}{11}{section.6}}
\@writefile{toc}{\contentsline {section}{\numberline {7}Tham Kh\IeC {\h a}o}{11}{section.7}}
\@writefile{toc}{\contentsline {section}{\numberline {8}Ph\IeC {\d u} l\IeC {\d u}c}{11}{section.8}}
\@writefile{toc}{\contentsline {subsection}{\numberline {8.1}Ph\IeC {\^a}n chia c\IeC {\^o}ng vi\IeC {\d \ecircumflex }c}{11}{subsection.8.1}}
\@writefile{toc}{\contentsline {subsection}{\numberline {8.2}H\IeC {\uhorn }\IeC {\'\ohorn }ng d\IeC {\~\acircumflex }n s\IeC {\h \uhorn } d\IeC {\d u}ng ch\IeC {\uhorn }\IeC {\ohorn }ng tr\IeC {\`\i }nh}{11}{subsection.8.2}}
\@writefile{toc}{\contentsline {subsubsection}{\numberline {8.2.1}Hash m\IeC {\d \ocircumflex }t file}{11}{subsubsection.8.2.1}}
\newlabel{fig:1}{{\caption@xref {fig:1}{ on input line 504}}{12}{Hash một file}{figure.caption.17}{}}
\@writefile{lof}{\contentsline {figure}{\numberline {14}{\ignorespaces \relax }}{12}{figure.caption.18}}
\newlabel{fig:4}{{14}{12}{\relax }{figure.caption.18}{}}
\@writefile{lof}{\contentsline {figure}{\numberline {15}{\ignorespaces \relax }}{13}{figure.caption.19}}
\newlabel{fig:2}{{15}{13}{\relax }{figure.caption.19}{}}
\@writefile{toc}{\contentsline {subsubsection}{\numberline {8.2.2}M\IeC {\~a} h\IeC {\'o}a file}{13}{subsubsection.8.2.2}}
\newlabel{fig:1}{{\caption@xref {fig:1}{ on input line 531}}{13}{Mã hóa file}{figure.caption.20}{}}
\@writefile{lof}{\contentsline {figure}{\numberline {16}{\ignorespaces \relax }}{14}{figure.caption.21}}
\newlabel{fig:5}{{16}{14}{\relax }{figure.caption.21}{}}
\@writefile{lof}{\contentsline {figure}{\numberline {17}{\ignorespaces \relax }}{14}{figure.caption.22}}
\newlabel{fig:7}{{17}{14}{\relax }{figure.caption.22}{}}
\@writefile{lof}{\contentsline {figure}{\numberline {18}{\ignorespaces \relax }}{15}{figure.caption.23}}
\newlabel{fig:9}{{18}{15}{\relax }{figure.caption.23}{}}
\newlabel{LastPage}{{}{15}{}{page.15}{}}
\xdef\lastpage@lastpage{15}
\xdef\lastpage@lastpageHy{15}
